Exploring the Brazilian Federal Senate
…
congressbr can be installed by running:

install.packages("congressbr")

And then loaded with:

library(congressbr)

Votes

The voting behaviour of legislators is an area of great interest both inside and outside of academia. congressbr has the sen_votes() function, which returns a data frame of votes in the Senate. These are not necessarily nominal votes, as some may be secret votes. In this case, the API records whether the senator voted or not. The other variables in the data frame returned pertain to the time of the vote, its number, id, year, description and its result. Information on individual senators (their party, name, id, gender and state) is also returned. This function has an argument, binary, which if TRUE, transforms the recorded (nominal) votes from “Yes” to 1 and “No” to 0. This is handy if you want to use the wnominate, pscl or MCMCpack functions to run ideal point analyses, for example. Please note that dates are in “yyyymmdd” format.

sen_votes(date = "20160908")

## # A tibble: 486 x 17
##    vote_date           vote_time vote_round bill_id bill_number bill_type
##    <dttm>              <chr>          <dbl> <chr>   <chr>       <chr>    
##  1 2016-09-08 00:00:00 14:00              1 126544  00076       MSF      
##  2 2016-09-08 00:00:00 14:00              1 126544  00076       MSF      
##  3 2016-09-08 00:00:00 14:00              1 126544  00076       MSF      
##  4 2016-09-08 00:00:00 14:00              1 126544  00076       MSF      
##  5 2016-09-08 00:00:00 14:00              1 126544  00076       MSF      
##  6 2016-09-08 00:00:00 14:00              1 126544  00076       MSF      
##  7 2016-09-08 00:00:00 14:00              1 126544  00076       MSF      
##  8 2016-09-08 00:00:00 14:00              1 126544  00076       MSF      
##  9 2016-09-08 00:00:00 14:00              1 126544  00076       MSF      
## 10 2016-09-08 00:00:00 14:00              1 126544  00076       MSF      
## # … with 476 more rows, and 11 more variables: bill_year <chr>,
## #   bill_description <chr>, rollcall_id <chr>, vote_result <chr>,
## #   vote_secret <chr>, senator_id <chr>, senator_name <chr>,
## #   senator_vote <chr>, senator_gender <chr>, senator_party <chr>,
## #   senator_state <chr>
…
Senator info

Information on individual senators can be had with sen_senator_details(). This function returns the senator’s id, name, party and state, as well as information on his/her date of birth, place of birth, their mandates, and office information such as email and correspondence address. If the senator is a titular senator, information on his/her deputies (suplentes) is available with sen_senator_suplentes(). The senator’s votes can be had with sen_senator_votes(), and their mandates with sen_senator_mandates(). For information on absences and party affiliations, use sen_senator(). All of these functions use the senator’s id (with the id option). A data frame of all of these is available from the function sen_senator_list():

sen_senator_list()

## # A tibble: 81 x 17
##    id    name_full name_senator gender foto_url page_url office_email party_abbr
##    <chr> <chr>     <chr>        <chr>  <chr>    <chr>    <chr>        <chr>     
##  1 4981  Acir Mar… Acir Gurgacz Mascu… http://… http://… sen.acirgur… PDT       
##  2 5982  Alessand… Alessandro … Mascu… http://… http://… sen.alessan… CIDADANIA 
##  3 945   Alvaro F… Alvaro Dias  Mascu… http://… http://… sen.alvarod… PODEMOS   
##  4 5967  Angelo M… Angelo Coro… Mascu… http://… http://… sen.angeloc… PSD       
##  5 5529  Antonio … Antonio Ana… Mascu… http://… http://… sen.antonio… PSDB      
##  6 751   Arolde d… Arolde de O… Mascu… http://… http://… sen.arolded… PSD       
##  7 5990  Carlos A… Carlos Viana Mascu… http://… http://… sen.carlosv… PSD       
##  8 470   Francisc… Chico Rodri… Mascu… http://… http://… sen.chicoro… DEM       
##  9 739   Ciro Nog… Ciro Noguei… Mascu… http://… http://… sen.cironog… PP        
## 10 475   Confucio… Confucio Mo… Mascu… http://… http://… sen.confuci… MDB       
## # … with 71 more rows, and 9 more variables: id_mandate <chr>, state <chr>,
## #   status <chr>, num_legislature_first_term <chr>, first_term_start <dttm>,
## #   first_term_end <dttm>, num_legislature_second_term <chr>,
## #   second_term_start <dttm>, second_term_end <dttm>

Commissions and coalitions

There are certain legislative coalitions in the Senate, all of whom have unique id numbers in the API database. These numbers can be accessed with sen_coalitions().

A data frame of commissions (full name and abbreviation) can be obtained with data("commissions"). The sen_commissions() function returns a detailed dataframe of commissions, their ids, type, house and purpose. Commissions can be explored by type variable returned from this function. For example, the “cpi” type (Comissão de Inquérito Parlamentar, Parliamentary Inquiry Commission) can be used in the sen_commissions_type() function, which will return a data frame of commissions of the type specified.

Using the commission abbreviations, we can see which senators serve on the commission. One well-known commission is the Commission for the Constitution, Justice and Citizenship (Constituicao, Justica e Cidadania). Its abbreviation is “CCJ”:

data("commissions")
sen_commissions_senators(code = "CCJ")

## # A tibble: 49 x 6
##    commission commission_abbr senator_id senator_name senator_party
##    <chr>      <chr>           <chr>      <chr>        <chr>        
##  1 Comissao … CCJ             5523       Otto Alencar PSD          
##  2 Comissao … CCJ             4994       Eduardo Bra… MDB          
##  3 Comissao … CCJ             5985       Nelsinho Tr… PSD          
##  4 Comissao … CCJ             5666       Major Olimp… PSL          
##  5 Comissao … CCJ             5537       Dario Berger MDB          
##  6 Comissao … CCJ             5967       Angelo Coro… PSD          
##  7 Comissao … CCJ             5718       Eliziane Ga… CIDADANIA    
##  8 Comissao … CCJ             22         Esperidiao … PP           
##  9 Comissao … CCJ             5350       Jorginho Me… PL           
## 10 Comissao … CCJ             285        Marcio Bitt… MDB          
## # … with 39 more rows, and 1 more variable: senator_state <chr>

General Information

Parties

A list of the parties who have held seats in the Senate can be had with sen_parties():

sen_parties()

## # A tibble: 48 x 4
##    party_id party_abbr party_name                       date_created
##    <chr>    <chr>      <chr>                            <chr>       
##  1 578      AVANTE     AVANTE                           2017-09-12  
##  2 41       CIDADANIA  CIDADANIA                        1992-01-01  
##  3 581      DC         Democracia Crista                2018-05-18  
##  4 554      DEM        Democratas                       2007-03-28  
##  5 33       MDB        Movimento Democratico Brasileiro 1980-01-01  
##  6 566      NOVO       Partido Novo                     2015-09-15  
##  7 142      PAN        Partido dos Aposentados da Nacao 1998-02-19  
##  8 579      PATRIOTA   Patriota                         2018-04-26  
##  9 94       PCB        Partido Comunista Brasileiro     1922-03-25  
## 10 144      PCN        Partido Comunitario  Nacional    1985-07-01  
## # … with 38 more rows
…
UF()

##  [1] "AC" "AL" "AP" "AM" "BA" "CE" "DF" "ES" "GO" "MA" "MT" "MS" "MG" "PA" "PB"
## [16] "PR" "PE" "PI" "RJ" "RN" "RS" "RO" "RR" "SC" "SP" "SE" "TO"

Bill types

The Senate API can be queried by the type of bill. If you are not familiar with the types of bills that come to the Senate floor, use sen_bills_types(). Other similar functions, useful for getting to know the Senate, are sen_plenary_sessions(), which returns data on the types of sessions held in the Senate, sen_bills_topics(), which returns a data frame with the topic labels for different subject categories.

The bill types can be used for other queries, such as for seeing what bills of a certain type are currently passing through the house. For example, we can see which MPVs (medida provisória; executive decree) were under consideration in the Senate in 2001:

sen_bills_passing(year = "2001", type = "MPV")

## # A tibble: 49 x 4
##    bill_id bill_number bill_year bill_type
##    <chr>   <chr>       <chr>     <chr>    
##  1 48017   02162       2001      MPV      
##  2 48018   02163       2001      MPV      
##  3 48019   02167       2001      MPV      
##  4 48020   02170       2001      MPV      
##  5 48021   02172       2001      MPV      
##  6 48022   02173       2001      MPV      
##  7 48025   02189       2001      MPV      
##  8 48032   02161       2001      MPV      
##  9 48034   02165       2001      MPV      
## 10 48036   02190       2001      MPV      
## # … with 39 more rows
…
